"UnlitGeneric"
{
	"$basetexture" "vgui/swarm/campaign/nh_transitionscreen"
	"$surfaceprop" "Snow"
	"$translucent" 1
	"$basetexture" "vgui/swarm/campaign/nh_transitionscreen"
	"$vertexcolor" 1
	"$vertexalpha" 1
	"$no_fullbright" 1
	"$nomip" 1
}
